1     0.00583
2     0.18403
3     0.27642
4     0.27660
5     0.30400
6     0.30465
7     0.31071
8     0.31094
9     0.31931
10    0.32768
11    0.41757
12    0.41849
13    0.42175
14    0.44155
15    0.47
